{
  "notice": {
    "alway": false,
    "title": "猪手通知！！！",
    "intro":"由于微博更新太快，版本太多，适配工作量过于巨大，所以猪手将在一个月后(6月18日)取消适配12.4.2以前的版本，届时12.4.2以前的版本会提示不适配，请尽快更新到新版的微博，敬请谅解~Respect。<br>ps:历史版本微博可在公众号下载",
    "exit": false,
    "show": true,
    "f": true,
    "url": "",
    "time": 3,
    "v": 3
  },
  "conf": {
    "showReward": true,
    "rewardOpen": true,
    "downUrl": "https://skyhand.lanzouf.com/iB21d05kyrfc",
    "downToast": "密码:2j6v",
    "payUsedUrl": "https://shimo.im/docs/AVuNeTgHDrQJRDos/",
    "usedUrl": "https://shimo.im/docs/08CuIcUf6IUrj2Y4/",
    "updateRecord": "https://shimo.im/docs/p3TJHgdCwddgYcp3/",
    "qqGroup": "",
    "rewardUrl": "https://www.kami.vip/purchasing?link=4J8E34",
    "checkUrl": "https://www.kami.vip/order_sel",
    "mainTip": "将在6月18日取消适配12.4.2以前的微博版本，请尽快更新到新版微博。<br>请关注公众号: <a href='copy:Skyhand的猪手圈'>Skyhand的猪手圈</a> 获取最新信息~",
    "rewardTip": "",
    "oldTip": "如果发现什么bug,请先更新模块到最新版本~",
    "normalTip": ""
  },
  "appText": "",
  "update": {
    "f": false,
    "vn": "2.1.3",
    "vc": 124,
    "du": "https://skyhand.lanzouf.com/iB21d05kyrfc",
    "dt": "密码:2j6v",
    "intro": "对比v2.1.2(116)更新记录：<br><br>1. 新增 真·去水印视频下载<br>2. 优化 应用转生可能报错的问题<br>3. 优化 对虚拟机低版本安卓的支持<br>4. 优化 修改dpi导致UI显示异常<br>5. 修复 新版微博无法去除大家在搜<br>6. 优化 低端机在太极转生的体验<br>7. 优化 对新版微博的适配<br>8. 优化 发现页轮播广告净化",
    "time": 0
  }
}